ISSS608-VAA - Take-home Exercise 3
…
3. The Visual Analytics

Show the code

resaleFlat3B <- filter(resaleFlat,flat_type=="3 ROOM")
resaleFlat4B <- filter(resaleFlat,flat_type=="4 ROOM")
resaleFlat5B <- filter(resaleFlat,flat_type=="5 ROOM")
resaleFlat5B

# A tibble: 6,716 × 11
   month   town    flat_…¹ block stree…² store…³ floor…⁴ flat_…⁵ lease…⁶ resal…⁷
   <chr>   <chr>   <chr>   <chr> <chr>   <chr>     <int> <chr>     <dbl>   <int>
 1 2022-01 ANG MO… 5 ROOM  402   ANG MO… 19 TO …     119 Improv…    1979  650000
 2 2022-01 ANG MO… 5 ROOM  460   ANG MO… 16 TO …     120 Improv…    1980  600000
 3 2022-01 ANG MO… 5 ROOM  539   ANG MO… 22 TO …     118 Improv…    1980  670000
 4 2022-01 ANG MO… 5 ROOM  521   ANG MO… 10 TO …     118 Improv…    1980  603000
 5 2022-01 ANG MO… 5 ROOM  648   ANG MO… 01 TO …     125 Improv…    1980  570000
 6 2022-01 ANG MO… 5 ROOM  354   ANG MO… 04 TO …     110 Improv…    2001  710000
 7 2022-01 ANG MO… 5 ROOM  353   ANG MO… 04 TO …     110 Improv…    2001  695000
 8 2022-01 ANG MO… 5 ROOM  350   ANG MO… 22 TO …     110 Improv…    2001  755000
 9 2022-01 ANG MO… 5 ROOM  588A  ANG MO… 01 TO …     120 DBSS       2011  780000
10 2022-01 ANG MO… 5 ROOM  588B  ANG MO… 28 TO …     120 DBSS       2011 1100000
# … with 6,706 more rows, 1 more variable: remaining_lease_months <dbl>, and
#   abbreviated variable names ¹​flat_type, ²​street_name, ³​storey_range,
#   ⁴​floor_area_sqm, ⁵​flat_model, ⁶​lease_commence_date, ⁷​resale_price
…
